"No","No. KTA","Penerbit KTA","Nama","NIK","Jenis Kelamin","Tempat Lahir","Tanggal Lahir","Status Perkawinan","Status Pekerjaan","Alamat","idKelurahan"
"1","01617090104220620000002","JAWA TIMUR","anggota denpasar2","2345654323456765","laki-laki","denpasar2","22/06/2020","menikah","Nelayan","denpasar2","id_kel"
"2","31117090104210620000001","DENPASAR","anggota denpasar3","1234567654345678","perempuan","denpasar3","21/06/2020","menikah","Nelayan","denpasar3","id_kel"
